[
{
  "model": "event.eventtype",
  "pk": 1,
  "fields": {
    "title": "\u0421\u0442\u0430\u0436\u0438\u0440\u043e\u0432\u043a\u0430",
    "description": ""
  }
},
{
  "model": "event.eventtype",
  "pk": 2,
  "fields": {
    "title": "\u041b\u0435\u043a\u0446\u0438\u0438",
    "description": ""
  }
},
{
  "model": "event.eventtype",
  "pk": 3,
  "fields": {
    "title": "\u041f\u0440\u0430\u043a\u0442\u0438\u043a\u0430",
    "description": ""
  }
},
{
  "model": "event.eventtype",
  "pk": 4,
  "fields": {
    "title": "\u0414\u0435\u043d\u044c \u043e\u0442\u043a\u0440\u044b\u0442\u044b\u0445 \u0434\u0432\u0435\u0440\u0435\u0439",
    "description": "\u043d\u0435 \u0441\u043e\u0434\u0435\u0440\u0436\u0438\u0442 \u0440\u0443\u0431\u0440\u0438\u043a"
  }
},
{
  "model": "event.eventrubric",
  "pk": 1,
  "fields": {
    "title": "\u0414\u043b\u044f \u0441\u0442\u0443\u0434\u0435\u043d\u0442\u043e\u0432",
    "description": "",
    "event_type": 1
  }
},
{
  "model": "event.eventrubric",
  "pk": 2,
  "fields": {
    "title": "\u0414\u043b\u044f \u0441\u043e\u0442\u0440\u0443\u0434\u043d\u0438\u043a\u043e\u0432",
    "description": "",
    "event_type": 1
  }
},
{
  "model": "event.eventrubric",
  "pk": 3,
  "fields": {
    "title": "\u0414\u043b\u044f \u0441\u0442\u0443\u0434\u0435\u043d\u0442\u043e\u0432",
    "description": "",
    "event_type": 2
  }
},
{
  "model": "event.eventrubric",
  "pk": 4,
  "fields": {
    "title": "\u0414\u043b\u044f \u0441\u043e\u0442\u0440\u0443\u0434\u043d\u0438\u043a\u043e\u0432",
    "description": "",
    "event_type": 2
  }
},
{
  "model": "event.eventrubric",
  "pk": 5,
  "fields": {
    "title": "\u0412\u0435\u0447\u0435\u0440\u043d\u044f\u044f",
    "description": "",
    "event_type": 3
  }
},
{
  "model": "event.eventrubric",
  "pk": 6,
  "fields": {
    "title": "\u0414\u043d\u0435\u0432\u043d\u0430\u044f",
    "description": "",
    "event_type": 3
  }
}
]
