[
{
  "model": "vacancy.rubric",
  "pk": 1,
  "fields": {
    "title": "\u0412\u0430\u043a\u0430\u043d\u0441\u0438\u0438 \u0434\u043b\u044f \u0441\u0442\u0430\u0436\u0435\u0440\u043e\u0432",
    "description": "\u0414\u043b\u044f \u0441\u0442\u0430\u0436\u0435\u0440\u043e\u0432, \u0441\u0442\u0443\u0434\u0435\u043d\u0442\u043e\u0432, \u0432\u0440\u0435\u043c\u0435\u043d\u043d\u044b\u0445 \u0440\u0430\u0431\u043e\u0442\u043d\u0438\u043a\u043e\u0432"
  }
},
{
  "model": "vacancy.skill",
  "pk": 1,
  "fields": {
    "title": "\u0421#",
    "description": "\u0421\u0438\u0448\u0430\u0440\u043f"
  }
},
{
  "model": "vacancy.skill",
  "pk": 2,
  "fields": {
    "title": "Python 3",
    "description": "\u041f\u0438\u0442\u043e\u043d 3"
  }
},
{
  "model": "vacancy.projectgroup",
  "pk": 1,
  "fields": {
    "title": "Ozon.Tech",
    "alt_title": "\u041e\u0437\u043e\u043d \u0422\u0435\u0445",
    "description": "\u0440\u0430\u0437\u0440\u0430\u0431\u043e\u0442\u043a\u0435/\u0434\u0435\u0432\u0435\u043b\u043e\u043f\u043c\u0435\u043d\u0442"
  }
},
{
  "model": "vacancy.project",
  "pk": 1,
  "fields": {
    "title": "Ozon.Mobile",
    "alt_title": "Ozon \u041c\u043e\u0431\u0430\u0439\u043b",
    "description": "\u041c\u043e\u0431\u0438\u043b\u044c\u043d\u0430\u044f \u0440\u0430\u0437\u0440\u0430\u0431\u043e\u0442\u043a\u0430",
    "project_group": 1
  }
}
]
